63;Male;PRI;145;233;Yes;Definite Abnormality;150;0;2.3;3;0;6;0
67;Male;TET;160;286;No;Definite Abnormality;108;1;1.5;2;3;3;1
67;Male;TET;120;229;No;Definite Abnormality;129;1;2.6;2;2;7;1
37;Male;TRI;130;250;No;Normal;187;0;3.5;3;0;3;0
41;Female;DUO;130;204;No;Definite Abnormality;172;0;1.4;1;0;3;0
56;Male;DUO;120;236;No;Normal;178;0;0.8;1;0;3;0
62;Female;TET;140;268;No;Definite Abnormality;160;0;3.6;3;2;3;1
57;Female;TET;120;354;No;Normal;163;1;0.6;1;0;3;0
63;Male;TET;130;254;No;Definite Abnormality;147;0;1.4;2;1;7;1
53;Male;TET;140;203;Yes;Definite Abnormality;155;1;3.1;3;0;7;1
57;Male;TET;140;192;No;Normal;148;0;0.4;2;0;6;0
56;Female;DUO;140;294;No;Definite Abnormality;153;0;1.3;2;0;3;0
56;Male;TRI;130;256;Yes;Definite Abnormality;142;1;0.6;2;1;6;1
44;Male;DUO;120;263;No;Normal;173;0;0;1;0;7;0
52;Male;TRI;172;199;Yes;Normal;162;0;0.5;1;0;7;0
57;Male;TRI;150;168;No;Normal;174;0;1.6;1;0;3;0
48;Male;DUO;110;229;No;Normal;168;0;1;3;0;7;1
54;Male;TET;140;239;No;Normal;160;0;1.2;1;0;3;0
48;Female;TRI;130;275;No;Normal;139;0;0.2;1;0;3;0
49;Male;DUO;130;266;No;Normal;171;0;0.6;1;0;3;0
64;Male;PRI;110;211;No;Definite Abnormality;144;1;1.8;2;0;3;0
58;Female;PRI;150;283;Yes;Definite Abnormality;162;0;1;1;0;3;0
58;Male;DUO;120;284;No;Definite Abnormality;160;0;1.8;2;0;3;1
58;Male;TRI;132;224;No;Definite Abnormality;173;0;3.2;1;2;7;1
60;Male;TET;130;206;No;Definite Abnormality;132;1;2.4;2;2;7;1
50;Female;TRI;120;219;No;Normal;158;0;1.6;2;0;3;0
58;Female;TRI;120;340;No;Normal;172;0;0;1;0;3;0
66;Female;PRI;150;226;No;Normal;114;0;2.6;3;0;3;0
43;Male;TET;150;247;No;Normal;171;0;1.5;1;0;3;0
40;Male;TET;110;167;No;Definite Abnormality;114;1;2;2;0;7;1
69;Female;PRI;140;239;No;Normal;151;0;1.8;1;2;3;0
60;Male;TET;117;230;Yes;Normal;160;1;1.4;1;2;7;1
64;Male;TRI;140;335;No;Normal;158;0;0;1;0;3;1
59;Male;TET;135;234;No;Normal;161;0;0.5;2;0;7;0
44;Male;TRI;130;233;No;Normal;179;1;0.4;1;0;3;0
42;Male;TET;140;226;No;Normal;178;0;0;1;0;3;0
43;Male;TET;120;177;No;Definite Abnormality;120;1;2.5;2;0;7;1
57;Male;TET;150;276;No;Definite Abnormality;112;1;0.6;2;1;6;1
55;Male;TET;132;353;No;Normal;132;1;1.2;2;1;7;1
61;Male;TRI;150;243;Yes;Normal;137;1;1;2;0;3;0
65;Female;TET;150;225;No;Definite Abnormality;114;0;1;2;3;7;1
40;Male;PRI;140;199;No;Normal;178;1;1.4;1;0;7;0
71;Female;DUO;160;302;No;Normal;162;0;0.4;1;2;3;0
59;Male;TRI;150;212;Yes;Normal;157;0;1.6;1;0;3;0
61;Female;TET;130;330;No;Definite Abnormality;169;0;0;1;0;3;1
58;Male;TRI;112;230;No;Definite Abnormality;165;0;2.5;2;1;7;1
51;Male;TRI;110;175;No;Normal;123;0;0.6;1;0;3;0
50;Male;TET;150;243;No;Definite Abnormality;128;0;2.6;2;0;7;1
65;Female;TRI;140;417;Yes;Definite Abnormality;157;0;0.8;1;1;3;0
53;Male;TRI;130;197;Yes;Definite Abnormality;152;0;1.2;3;0;3;0
41;Female;DUO;105;198;No;Normal;168;0;0;1;1;3;0
65;Male;TET;120;177;No;Normal;140;0;0.4;1;0;7;0
44;Male;TET;112;290;No;Definite Abnormality;153;0;0;1;1;3;1
44;Male;DUO;130;219;No;Definite Abnormality;188;0;0;1;0;3;0
60;Male;TET;130;253;No;Normal;144;1;1.4;1;1;7;1
54;Male;TET;124;266;No;Definite Abnormality;109;1;2.2;2;1;7;1
50;Male;TRI;140;233;No;Normal;163;0;0.6;2;1;7;1
41;Male;TET;110;172;No;Definite Abnormality;158;0;0;1;0;7;1
54;Male;TRI;125;273;No;Definite Abnormality;152;0;0.5;3;1;3;0
51;Male;PRI;125;213;No;Definite Abnormality;125;1;1.4;1;1;3;0
51;Female;TET;130;305;No;Normal;142;1;1.2;2;0;7;1
46;Female;TRI;142;177;No;Definite Abnormality;160;1;1.4;3;0;3;0
58;Male;TET;128;216;No;Definite Abnormality;131;1;2.2;2;3;7;1
54;Female;TRI;135;304;Yes;Normal;170;0;0;1;0;3;0
54;Male;TET;120;188;No;Normal;113;0;1.4;2;1;7;1
60;Male;TET;145;282;No;Definite Abnormality;142;1;2.8;2;2;7;1
60;Male;TRI;140;185;No;Definite Abnormality;155;0;3;2;0;3;1
54;Male;TRI;150;232;No;Definite Abnormality;165;0;1.6;1;0;7;0
59;Male;TET;170;326;No;Definite Abnormality;140;1;3.4;3;0;7;1
46;Male;TRI;150;231;No;Normal;147;0;3.6;2;0;3;1
65;Female;TRI;155;269;No;Normal;148;0;0.8;1;0;3;0
67;Male;TET;125;254;Yes;Normal;163;0;0.2;2;2;7;1
62;Male;TET;120;267;No;Normal;99;1;1.8;2;2;7;1
65;Male;TET;110;248;No;Definite Abnormality;158;0;0.6;1;2;6;1
44;Male;TET;110;197;No;Definite Abnormality;177;0;0;1;1;3;1
65;Female;TRI;160;360;No;Definite Abnormality;151;0;0.8;1;0;3;0
60;Male;TET;125;258;No;Definite Abnormality;141;1;2.8;2;1;7;1
51;Female;TRI;140;308;No;Definite Abnormality;142;0;1.5;1;1;3;0
48;Male;DUO;130;245;No;Definite Abnormality;180;0;0.2;2;0;3;0
58;Male;TET;150;270;No;Definite Abnormality;111;1;0.8;1;0;7;1
45;Male;TET;104;208;No;Definite Abnormality;148;1;3;2;0;3;0
53;Female;TET;130;264;No;Definite Abnormality;143;0;0.4;2;0;3;0
39;Male;TRI;140;321;No;Definite Abnormality;182;0;0;1;0;3;0
68;Male;TRI;180;274;Yes;Definite Abnormality;150;1;1.6;2;0;7;1
52;Male;DUO;120;325;No;Normal;172;0;0.2;1;0;3;0
44;Male;TRI;140;235;No;Definite Abnormality;180;0;0;1;0;3;0
47;Male;TRI;138;257;No;Definite Abnormality;156;0;0;1;0;3;0
53;Female;TET;138;234;No;Definite Abnormality;160;0;0;1;0;3;0
51;Female;TRI;130;256;No;Definite Abnormality;149;0;0.5;1;0;3;0
66;Male;TET;120;302;No;Definite Abnormality;151;0;0.4;2;0;3;0
62;Female;TET;160;164;No;Definite Abnormality;145;0;6.2;3;3;7;1
62;Male;TRI;130;231;No;Normal;146;0;1.8;2;3;7;0
44;Female;TRI;108;141;No;Normal;175;0;0.6;2;0;3;0
63;Female;TRI;135;252;No;Definite Abnormality;172;0;0;1;0;3;0
52;Male;TET;128;255;No;Normal;161;1;0;1;1;7;1
59;Male;TET;110;239;No;Definite Abnormality;142;1;1.2;2;1;7;1
60;Female;TET;150;258;No;Definite Abnormality;157;0;2.6;2;2;7;1
52;Male;DUO;134;201;No;Normal;158;0;0.8;1;1;3;0
48;Male;TET;122;222;No;Definite Abnormality;186;0;0;1;0;3;0
45;Male;TET;115;260;No;Definite Abnormality;185;0;0;1;0;3;0
34;Male;PRI;118;182;No;Definite Abnormality;174;0;0;1;0;3;0
57;Female;TET;128;303;No;Definite Abnormality;159;0;0;1;1;3;0
71;Female;TRI;110;265;Yes;Definite Abnormality;130;0;0;1;1;3;0
49;Male;TRI;120;188;No;Normal;139;0;2;2;3;7;1
54;Male;DUO;108;309;No;Normal;156;0;0;1;0;7;0
59;Male;TET;140;177;No;Normal;162;1;0;1;1;7;1
57;Male;TRI;128;229;No;Definite Abnormality;150;0;0.4;2;1;7;1
61;Male;TET;120;260;No;Normal;140;1;3.6;2;1;7;1
39;Male;TET;118;219;No;Normal;140;0;1.2;2;0;7;1
61;Female;TET;145;307;No;Definite Abnormality;146;1;1;2;0;7;1
56;Male;TET;125;249;Yes;Definite Abnormality;144;1;1.2;2;1;3;1
52;Male;PRI;118;186;No;Definite Abnormality;190;0;0;2;0;6;0
43;Female;TET;132;341;Yes;Definite Abnormality;136;1;3;2;0;7;1
62;Female;TRI;130;263;No;Normal;97;0;1.2;2;1;7;1
41;Male;DUO;135;203;No;Normal;132;0;0;2;0;6;0
58;Male;TRI;140;211;Yes;Definite Abnormality;165;0;0;1;0;3;0
35;Female;TET;138;183;No;Normal;182;0;1.4;1;0;3;0
63;Male;TET;130;330;Yes;Definite Abnormality;132;1;1.8;1;3;7;1
65;Male;TET;135;254;No;Definite Abnormality;127;0;2.8;2;1;7;1
48;Male;TET;130;256;Yes;Definite Abnormality;150;1;0;1;2;7;1
63;Female;TET;150;407;No;Definite Abnormality;154;0;4;2;3;7;1
51;Male;TRI;100;222;No;Normal;143;1;1.2;2;0;3;0
55;Male;TET;140;217;No;Normal;111;1;5.6;3;0;7;1
65;Male;PRI;138;282;Yes;Definite Abnormality;174;0;1.4;2;1;3;1
45;Female;DUO;130;234;No;Definite Abnormality;175;0;0.6;2;0;3;0
56;Female;TET;200;288;Yes;Definite Abnormality;133;1;4;3;2;7;1
54;Male;TET;110;239;No;Normal;126;1;2.8;2;1;7;1
44;Male;DUO;120;220;No;Normal;170;0;0;1;0;3;0
62;Female;TET;124;209;No;Normal;163;0;0;1;0;3;0
54;Male;TRI;120;258;No;Definite Abnormality;147;0;0.4;2;0;7;0
51;Male;TRI;94;227;No;Normal;154;1;0;1;1;7;0
29;Male;DUO;130;204;No;Definite Abnormality;202;0;0;1;0;3;0
51;Male;TET;140;261;No;Definite Abnormality;186;1;0;1;0;3;0
43;Female;TRI;122;213;No;Normal;165;0;0.2;2;0;3;0
55;Female;DUO;135;250;No;Definite Abnormality;161;0;1.4;2;0;3;0
70;Male;TET;145;174;No;Normal;125;1;2.6;3;0;7;1
62;Male;DUO;120;281;No;Definite Abnormality;103;0;1.4;2;1;7;1
35;Male;TET;120;198;No;Normal;130;1;1.6;2;0;7;1
51;Male;TRI;125;245;Yes;Definite Abnormality;166;0;2.4;2;0;3;0
59;Male;DUO;140;221;No;Normal;164;1;0;1;0;3;0
59;Male;PRI;170;288;No;Definite Abnormality;159;0;0.2;2;0;7;1
52;Male;DUO;128;205;Yes;Normal;184;0;0;1;0;3;0
64;Male;TRI;125;309;No;Normal;131;1;1.8;2;0;7;1
58;Male;TRI;105;240;No;Definite Abnormality;154;1;0.6;2;0;7;0
47;Male;TRI;108;243;No;Normal;152;0;0;1;0;3;1
57;Male;TET;165;289;Yes;Definite Abnormality;124;0;1;2;3;7;1
41;Male;TRI;112;250;No;Normal;179;0;0;1;0;3;0
45;Male;DUO;128;308;No;Definite Abnormality;170;0;0;1;0;3;0
60;Female;TRI;102;318;No;Normal;160;0;0;1;1;3;0
52;Male;PRI;152;298;Yes;Normal;178;0;1.2;2;0;7;0
42;Female;TET;102;265;No;Definite Abnormality;122;0;0.6;2;0;3;0
67;Female;TRI;115;564;No;Definite Abnormality;160;0;1.6;2;0;7;0
55;Male;TET;160;289;No;Definite Abnormality;145;1;0.8;2;1;7;1
64;Male;TET;120;246;No;Definite Abnormality;96;1;2.2;3;1;3;1
70;Male;TET;130;322;No;Definite Abnormality;109;0;2.4;2;3;3;1
51;Male;TET;140;299;No;Normal;173;1;1.6;1;0;7;1
58;Male;TET;125;300;No;Definite Abnormality;171;0;0;1;2;7;1
60;Male;TET;140;293;No;Definite Abnormality;170;0;1.2;2;2;7;1
68;Male;TRI;118;277;No;Normal;151;0;1;1;1;7;0
46;Male;DUO;101;197;Yes;Normal;156;0;0;1;0;7;0
77;Male;TET;125;304;No;Definite Abnormality;162;1;0;1;3;3;1
54;Female;TRI;110;214;No;Normal;158;0;1.6;2;0;3;0
58;Female;TET;100;248;No;Definite Abnormality;122;0;1;2;0;3;0
48;Male;TRI;124;255;Yes;Normal;175;0;0;1;2;3;0
57;Male;TET;132;207;No;Normal;168;1;0;1;0;7;0
54;Female;DUO;132;288;Yes;Definite Abnormality;159;1;0;1;1;3;0
35;Male;TET;126;282;No;Definite Abnormality;156;1;0;1;0;7;1
45;Female;DUO;112;160;No;Normal;138;0;0;2;0;3;0
70;Male;TRI;160;269;No;Normal;112;1;2.9;2;1;7;1
53;Male;TET;142;226;No;Definite Abnormality;111;1;0;1;0;7;0
59;Female;TET;174;249;No;Normal;143;1;0;2;0;3;1
62;Female;TET;140;394;No;Definite Abnormality;157;0;1.2;2;0;3;0
64;Male;TET;145;212;No;Definite Abnormality;132;0;2;2;2;6;1
57;Male;TET;152;274;No;Normal;88;1;1.2;2;1;7;1
52;Male;TET;108;233;Yes;Normal;147;0;0.1;1;3;7;0
56;Male;TET;132;184;No;Definite Abnormality;105;1;2.1;2;1;6;1
43;Male;TRI;130;315;No;Normal;162;0;1.9;1;1;3;0
53;Male;TRI;130;246;Yes;Definite Abnormality;173;0;0;1;3;3;0
48;Male;TET;124;274;No;Definite Abnormality;166;0;0.5;2;0;7;1
56;Female;TET;134;409;No;Definite Abnormality;150;1;1.9;2;2;7;1
42;Male;PRI;148;244;No;Definite Abnormality;178;0;0.8;1;2;3;0
59;Male;PRI;178;270;No;Definite Abnormality;145;0;4.2;3;0;7;0
60;Female;TET;158;305;No;Definite Abnormality;161;0;0;1;0;3;1
63;Female;DUO;140;195;No;Normal;179;0;0;1;2;3;0
42;Male;TRI;120;240;Yes;Normal;194;0;0.8;3;0;7;0
66;Male;DUO;160;246;No;Normal;120;1;0;2;3;6;1
54;Male;DUO;192;283;No;Definite Abnormality;195;0;0;1;1;7;1
69;Male;TRI;140;254;No;Definite Abnormality;146;0;2;2;3;7;1
50;Male;TRI;129;196;No;Normal;163;0;0;1;0;3;0
51;Male;TET;140;298;No;Normal;122;1;4.2;2;3;7;1
62;Female;TET;138;294;Yes;Normal;106;0;1.9;2;3;3;1
68;Female;TRI;120;211;No;Definite Abnormality;115;0;1.5;2;0;3;0
67;Male;TET;100;299;No;Definite Abnormality;125;1;0.9;2;2;3;1
69;Male;PRI;160;234;Yes;Definite Abnormality;131;0;0.1;2;1;3;0
45;Female;TET;138;236;No;Definite Abnormality;152;1;0.2;2;0;3;0
50;Female;DUO;120;244;No;Normal;162;0;1.1;1;0;3;0
59;Male;PRI;160;273;No;Definite Abnormality;125;0;0;1;0;3;1
50;Female;TET;110;254;No;Definite Abnormality;159;0;0;1;0;3;0
64;Female;TET;180;325;No;Normal;154;1;0;1;0;3;0
57;Male;TRI;150;126;Yes;Normal;173;0;0.2;1;1;7;0
64;Female;TRI;140;313;No;Normal;133;0;0.2;1;0;7;0
43;Male;TET;110;211;No;Normal;161;0;0;1;0;7;0
45;Male;TET;142;309;No;Definite Abnormality;147;1;0;2;3;7;1
58;Male;TET;128;259;No;Definite Abnormality;130;1;3;2;2;7;1
50;Male;TET;144;200;No;Definite Abnormality;126;1;0.9;2;0;7;1
55;Male;DUO;130;262;No;Normal;155;0;0;1;0;3;0
62;Female;TET;150;244;No;Normal;154;1;1.4;2;0;3;1
37;Female;TRI;120;215;No;Normal;170;0;0;1;0;3;0
38;Male;PRI;120;231;No;Normal;182;1;3.8;2;0;7;1
41;Male;TRI;130;214;No;Definite Abnormality;168;0;2;2;0;3;0
66;Female;TET;178;228;Yes;Normal;165;1;1;2;2;7;1
52;Male;TET;112;230;No;Normal;160;0;0;1;1;3;1
56;Male;PRI;120;193;No;Definite Abnormality;162;0;1.9;2;0;7;0
46;Female;DUO;105;204;No;Normal;172;0;0;1;0;3;0
46;Female;TET;138;243;No;Definite Abnormality;152;1;0;2;0;3;0
64;Female;TET;130;303;No;Normal;122;0;2;2;2;3;0
59;Male;TET;138;271;No;Definite Abnormality;182;0;0;1;0;3;0
41;Female;TRI;112;268;No;Definite Abnormality;172;1;0;1;0;3;0
54;Female;TRI;108;267;No;Definite Abnormality;167;0;0;1;0;3;0
39;Female;TRI;94;199;No;Normal;179;0;0;1;0;3;0
53;Male;TET;123;282;No;Normal;95;1;2;2;2;7;1
63;Female;TET;108;269;No;Normal;169;1;1.8;2;2;3;1
34;Female;DUO;118;210;No;Normal;192;0;0.7;1;0;3;0
47;Male;TET;112;204;No;Normal;143;0;0.1;1;0;3;0
67;Female;TRI;152;277;No;Normal;172;0;0;1;1;3;0
54;Male;TET;110;206;No;Definite Abnormality;108;1;0;2;1;3;1
66;Male;TET;112;212;No;Definite Abnormality;132;1;0.1;1;1;3;1
52;Female;TRI;136;196;No;Definite Abnormality;169;0;0.1;2;0;3;0
55;Female;TET;180;327;No;Slight Abnormality;117;1;3.4;2;0;3;1
49;Male;TRI;118;149;No;Definite Abnormality;126;0;0.8;1;3;3;1
74;Female;DUO;120;269;No;Definite Abnormality;121;1;0.2;1;1;3;0
54;Female;TRI;160;201;No;Normal;163;0;0;1;1;3;0
54;Male;TET;122;286;No;Definite Abnormality;116;1;3.2;2;2;3;1
56;Male;TET;130;283;Yes;Definite Abnormality;103;1;1.6;3;0;7;1
46;Male;TET;120;249;No;Definite Abnormality;144;0;0.8;1;0;7;1
49;Female;DUO;134;271;No;Normal;162;0;0;2;0;3;0
42;Male;DUO;120;295;No;Normal;162;0;0;1;0;3;0
41;Male;DUO;110;235;No;Normal;153;0;0;1;0;3;0
41;Female;DUO;126;306;No;Normal;163;0;0;1;0;3;0
49;Female;TET;130;269;No;Normal;163;0;0;1;0;3;0
61;Male;PRI;134;234;No;Normal;145;0;2.6;2;2;3;1
60;Female;TRI;120;178;Yes;Normal;96;0;0;1;0;3;0
67;Male;TET;120;237;No;Normal;71;0;1;2;0;3;1
58;Male;TET;100;234;No;Normal;156;0;0.1;1;1;7;1
47;Male;TET;110;275;No;Definite Abnormality;118;1;1;2;1;3;1
52;Male;TET;125;212;No;Normal;168;0;1;1;2;7;1
62;Male;DUO;128;208;Yes;Definite Abnormality;140;0;0;1;0;3;0
57;Male;TET;110;201;No;Normal;126;1;1.5;2;0;6;0
58;Male;TET;146;218;No;Normal;105;0;2;2;1;7;1
64;Male;TET;128;263;No;Normal;105;1;0.2;2;1;7;0
51;Female;TRI;120;295;No;Definite Abnormality;157;0;0.6;1;0;3;0
43;Male;TET;115;303;No;Normal;181;0;1.2;2;0;3;0
42;Female;TRI;120;209;No;Normal;173;0;0;2;0;3;0
67;Female;TET;106;223;No;Normal;142;0;0.3;1;2;3;0
76;Female;TRI;140;197;No;Slight Abnormality;116;0;1.1;2;0;3;0
70;Male;DUO;156;245;No;Definite Abnormality;143;0;0;1;0;3;0
57;Male;DUO;124;261;No;Normal;141;0;0.3;1;0;7;1
44;Female;TRI;118;242;No;Normal;149;0;0.3;2;1;3;0
58;Female;DUO;136;319;Yes;Definite Abnormality;152;0;0;1;2;3;1
60;Female;PRI;150;240;No;Normal;171;0;0.9;1;0;3;0
44;Male;TRI;120;226;No;Normal;169;0;0;1;0;3;0
61;Male;TET;138;166;No;Definite Abnormality;125;1;3.6;2;1;3;1
42;Male;TET;136;315;No;Normal;125;1;1.8;2;0;6;1
59;Male;TRI;126;218;Yes;Normal;134;0;2.2;2;1;6;1
40;Male;TET;152;223;No;Normal;181;0;0;1;0;7;1
42;Male;TRI;130;180;No;Normal;150;0;0;1;0;3;0
61;Male;TET;140;207;No;Definite Abnormality;138;1;1.9;1;1;7;1
66;Male;TET;160;228;No;Definite Abnormality;138;0;2.3;1;0;6;0
46;Male;TET;140;311;No;Normal;120;1;1.8;2;2;7;1
71;Female;TET;112;149;No;Normal;125;0;1.6;2;0;3;0
